lab6/primeraparte/archivos/controller_tb.vcd
$date
	Wed Jun 14 19:32:39 2023
$end
$version
	Icarus Verilog
$end
$timescale
	1ns
$end
$scope module arm $end
$var wire 4 ! ALUFlags [3:0] $end
$var wire 32 " Adr [31:0] $end
$var wire 32 # Instr [31:0] $end
$var wire 32 $ ReadData [31:0] $end
$var wire 32 % WriteData [31:0] $end
$var wire 1 & clk $end
$var wire 1 ' reset $end
$var wire 2 ( ResultSrc [1:0] $end
$var wire 1 ) RegWrite $end
$var wire 2 * RegSrc [1:0] $end
$var wire 1 + PCWrite $end
$var wire 1 , MemWrite $end
$var wire 2 - ImmSrc [1:0] $end
$var wire 1 . IRWrite $end
$var wire 1 / AdrSrc $end
$var wire 2 0 ALUSrcB [1:0] $end
$var wire 2 1 ALUSrcA [1:0] $end
$var wire 2 2 ALUControl [1:0] $end
$scope module c $end
$var wire 4 3 ALUFlags [3:0] $end
$var wire 20 4 Instr [31:12] $end
$var wire 1 & clk $end
$var wire 1 ' reset $end
$var wire 2 5 ResultSrc [1:0] $end
$var wire 1 ) RegWrite $end
$var wire 1 6 RegW $end
$var wire 2 7 RegSrc [1:0] $end
$var wire 1 + PCWrite $end
$var wire 1 8 PCS $end
$var wire 1 9 NextPC $end
$var wire 1 , MemWrite $end
$var wire 1 : MemW $end
$var wire 2 ; ImmSrc [1:0] $end
$var wire 1 . IRWrite $end
$var wire 2 < FlagW [1:0] $end
$var wire 1 / AdrSrc $end
$var wire 2 = ALUSrcB [1:0] $end
$var wire 2 > ALUSrcA [1:0] $end
$var wire 2 ? ALUControl [1:0] $end
$scope module cl $end
$var wire 4 @ ALUFlags [3:0] $end
$var wire 4 A Cond [3:0] $end
$var wire 2 B FlagWrite [1:0] $end
$var wire 1 , MemWrite $end
$var wire 1 + PCWrite $end
$var wire 1 ) RegWrite $end
$var wire 1 & clk $end
$var wire 1 ' reset $end
$var wire 1 6 RegW $end
$var wire 1 8 PCS $end
$var wire 1 9 NextPC $end
$var wire 1 : MemW $end
$var wire 4 C Flags [3:0] $end
$var wire 2 D FlagW [1:0] $end
$var wire 1 E CondEx $end
$var wire 1 F AfterCondEx $end
$scope module cc $end
$var wire 4 G Cond [3:0] $end
$var wire 4 H Flags [3:0] $end
$var wire 1 I ge $end
$var wire 1 J zero $end
$var wire 1 K overflow $end
$var wire 1 L neg $end
$var wire 1 M carry $end
$var reg 1 E CondEx $end
$upscope $end
$scope module flagreg0 $end
$var wire 1 & clk $end
$var wire 2 N d [1:0] $end
$var wire 1 O en $end
$var wire 1 ' reset $end
$var reg 2 P q [1:0] $end
$upscope $end
$scope module flagreg1 $end
$var wire 1 & clk $end
$var wire 2 Q d [1:0] $end
$var wire 1 R en $end
$var wire 1 ' reset $end
$var reg 2 S q [1:0] $end
$upscope $end
$scope module flagwritereg $end
$var wire 1 & clk $end
$var wire 1 E d $end
$var wire 1 ' reset $end
$var reg 1 F q $end
$upscope $end
$upscope $end
$scope module dec $end
$var wire 6 T Funct [5:0] $end
$var wire 2 U ImmSrc [1:0] $end
$var wire 2 V Op [1:0] $end
$var wire 1 8 PCS $end
$var wire 4 W Rd [3:0] $end
$var wire 1 & clk $end
$var wire 1 ' reset $end
$var wire 2 X ResultSrc [1:0] $end
$var wire 1 6 RegW $end
$var wire 2 Y RegSrc [1:0] $end
$var wire 1 9 NextPC $end
$var wire 1 : MemW $end
$var wire 1 . IRWrite $end
$var wire 1 Z Branch $end
$var wire 1 / AdrSrc $end
$var wire 2 [ ALUSrcB [1:0] $end
$var wire 2 \ ALUSrcA [1:0] $end
$var wire 1 ] ALUOp $end
$var reg 2 ^ ALUControl [1:0] $end
$var reg 2 _ FlagW [1:0] $end
$scope module fsm $end
$var wire 6 ` Funct [5:0] $end
$var wire 2 a Op [1:0] $end
$var wire 1 & clk $end
$var wire 1 ' reset $end
$var wire 2 b ResultSrc [1:0] $end
$var wire 1 6 RegW $end
$var wire 1 9 NextPC $end
$var wire 1 : MemW $end
$var wire 1 . IRWrite $end
$var wire 1 Z Branch $end
$var wire 1 / AdrSrc $end
$var wire 2 c ALUSrcB [1:0] $end
$var wire 2 d ALUSrcA [1:0] $end
$var wire 1 ] ALUOp $end
$var reg 13 e controls [12:0] $end
$var reg 4 f nextstate [3:0] $end
$var reg 4 g state [3:0] $end
$upscope $end
$upscope $end
$upscope $end
$scope module dp $end
$var wire 2 h ALUControl [1:0] $end
$var wire 4 i ALUFlags [3:0] $end
$var wire 2 j ALUSrcA [1:0] $end
$var wire 2 k ALUSrcB [1:0] $end
$var wire 32 l Adr [31:0] $end
$var wire 1 / AdrSrc $end
$var wire 1 . IRWrite $end
$var wire 2 m ImmSrc [1:0] $end
$var wire 32 n Instr [31:0] $end
$var wire 1 + PCWrite $end
$var wire 32 o ReadData [31:0] $end
$var wire 2 p RegSrc [1:0] $end
$var wire 1 ) RegWrite $end
$var wire 2 q ResultSrc [1:0] $end
$var wire 32 r WriteData [31:0] $end
$var wire 1 & clk $end
$var wire 1 ' reset $end
$upscope $end
$upscope $end
$scope module controller_tb $end
$var wire 2 s ResultSrc [1:0] $end
$var wire 1 t RegWrite $end
$var wire 2 u RegSrc [1:0] $end
$var wire 1 v PCWrite $end
$var wire 1 w MemWrite $end
$var wire 2 x ImmSrc [1:0] $end
$var wire 1 y IRWrite $end
$var wire 1 z AdrSrc $end
$var wire 2 { ALUSrcB [1:0] $end
$var wire 2 | ALUSrcA [1:0] $end
$var wire 2 } ALUControl [1:0] $end
$var reg 4 ~ ALUFlags [3:0] $end
$var reg 20 !" Instr [31:12] $end
$var reg 32 "" a [31:0] $end
$var reg 1 #" clk $end
$var reg 1 $" reset $end
$scope module dut $end
$var wire 4 %" ALUFlags [3:0] $end
$var wire 20 &" Instr [31:12] $end
$var wire 1 #" clk $end
$var wire 1 $" reset $end
$var wire 2 '" ResultSrc [1:0] $end
$var wire 1 t RegWrite $end
$var wire 1 (" RegW $end
$var wire 2 )" RegSrc [1:0] $end
$var wire 1 v PCWrite $end
$var wire 1 *" PCS $end
$var wire 1 +" NextPC $end
$var wire 1 w MemWrite $end
$var wire 1 ," MemW $end
$var wire 2 -" ImmSrc [1:0] $end
$var wire 1 y IRWrite $end
$var wire 2 ." FlagW [1:0] $end
$var wire 1 z AdrSrc $end
$var wire 2 /" ALUSrcB [1:0] $end
$var wire 2 0" ALUSrcA [1:0] $end
$var wire 2 1" ALUControl [1:0] $end
$scope module cl $end
$var wire 4 2" ALUFlags [3:0] $end
$var wire 4 3" Cond [3:0] $end
$var wire 2 4" FlagWrite [1:0] $end
$var wire 1 w MemWrite $end
$var wire 1 v PCWrite $end
$var wire 1 t RegWrite $end
$var wire 1 #" clk $end
$var wire 1 $" reset $end
$var wire 1 (" RegW $end
$var wire 1 *" PCS $end
$var wire 1 +" NextPC $end
$var wire 1 ," MemW $end
$var wire 4 5" Flags [3:0] $end
$var wire 2 6" FlagW [1:0] $end
$var wire 1 7" CondEx $end
$var wire 1 8" AfterCondEx $end
$scope module cc $end
$var wire 4 9" Cond [3:0] $end
$var wire 4 :" Flags [3:0] $end
$var wire 1 ;" ge $end
$var wire 1 <" zero $end
$var wire 1 =" overflow $end
$var wire 1 >" neg $end
$var wire 1 ?" carry $end
$var reg 1 7" CondEx $end
$upscope $end
$scope module flagreg0 $end
$var wire 1 #" clk $end
$var wire 2 @" d [1:0] $end
$var wire 1 A" en $end
$var wire 1 $" reset $end
$var reg 2 B" q [1:0] $end
$upscope $end
$scope module flagreg1 $end
$var wire 1 #" clk $end
$var wire 2 C" d [1:0] $end
$var wire 1 D" en $end
$var wire 1 $" reset $end
$var reg 2 E" q [1:0] $end
$upscope $end
$scope module flagwritereg $end
$var wire 1 #" clk $end
$var wire 1 7" d $end
$var wire 1 $" reset $end
$var reg 1 8" q $end
$upscope $end
$upscope $end
$scope module dec $end
$var wire 6 F" Funct [5:0] $end
$var wire 2 G" ImmSrc [1:0] $end
$var wire 2 H" Op [1:0] $end
$var wire 1 *" PCS $end
$var wire 4 I" Rd [3:0] $end
$var wire 1 #" clk $end
$var wire 1 $" reset $end
$var wire 2 J" ResultSrc [1:0] $end
$var wire 1 (" RegW $end
$var wire 2 K" RegSrc [1:0] $end
$var wire 1 +" NextPC $end
$var wire 1 ," MemW $end
$var wire 1 y IRWrite $end
$var wire 1 L" Branch $end
$var wire 1 z AdrSrc $end
$var wire 2 M" ALUSrcB [1:0] $end
$var wire 2 N" ALUSrcA [1:0] $end
$var wire 1 O" ALUOp $end
$var reg 2 P" ALUControl [1:0] $end
$var reg 2 Q" FlagW [1:0] $end
$scope module fsm $end
$var wire 6 R" Funct [5:0] $end
$var wire 2 S" Op [1:0] $end
$var wire 1 #" clk $end
$var wire 1 $" reset $end
$var wire 2 T" ResultSrc [1:0] $end
$var wire 1 (" RegW $end
$var wire 1 +" NextPC $end
$var wire 1 ," MemW $end
$var wire 1 y IRWrite $end
$var wire 1 L" Branch $end
$var wire 1 z AdrSrc $end
$var wire 2 U" ALUSrcB [1:0] $end
$var wire 2 V" ALUSrcA [1:0] $end
$var wire 1 O" ALUOp $end
$var reg 13 W" controls [12:0] $end
$var reg 4 X" nextstate [3:0] $end
$var reg 4 Y" state [3:0] $end
$upscope $end
$upscope $end
$upscope $end
$upscope $end
$scope module mux3 $end
$var wire 8 Z" d0 [7:0] $end
$var wire 8 [" d1 [7:0] $end
$var wire 8 \" d2 [7:0] $end
$var wire 2 ]" s [1:0] $end
$var wire 8 ^" y [7:0] $end
$upscope $end
$enddefinitions $end
#0
$dumpvars
bz ^"
bz ]"
bz \"
bz ["
bz Z"
b0 Y"
b1 X"
b1000101001100 W"
b1 V"
b10 U"
b10 T"
bx S"
bx R"
b0 Q"
b0 P"
0O"
b1 N"
b10 M"
0L"
bx K"
b10 J"
bx I"
bx H"
bx G"
bx F"
b0 E"
0D"
b0 C"
b0 B"
0A"
b0 @"
0?"
0>"
0="
0<"
1;"
b0 :"
bx 9"
08"
x7"
b0 6"
b0 5"
b0 4"
bx 3"
b0 2"
b0 1"
b1 0"
b10 /"
b0 ."
bx -"
0,"
1+"
0*"
bx )"
0("
b10 '"
bx &"
b0 %"
1$"
0#"
b0 ""
bx !"
b0 ~
b0 }
b1 |
b10 {
0z
1y
bx x
0w
1v
bx u
0t
b10 s
bz r
bx q
bx p
bz o
bz n
bz m
bz l
bx k
bx j
bz i
b0 h
bx g
b1 f
bx e
bx d
bx c
bx b
bz a
bz `
b0 _
b0 ^
x]
bx \
bx [
xZ
bx Y
bx X
bz W
bz V
bz U
bz T
bx S
0R
bz Q
bx P
0O
bz N
xM
xL
xK
xJ
xI
bx H
bz G
xF
xE
b0 D
bx C
b0 B
bz A
bz @
b0 ?
bx >
bx =
b0 <
bz ;
x:
x9
x8
bx 7
x6
bx 5
bz 4
bz 3
b0 2
bx 1
bx 0
x/
x.
bz -
x,
x+
bx *
x)
bx (
z'
z&
bz %
bz $
bz #
bz "
bz !
$end
#5
0v
0+"
0y
b1001100 W"
b110 X"
x8"
b1 Y"
17"
b0 x
b0 -"
b0 G"
b0 u
b0 )"
b0 K"
b0 H"
b0 S"
b100 F"
b100 R"
b0 I"
b1110 3"
b1110 9"
b1 ""
b11100000010011110000 !"
b11100000010011110000 &"
1#"
0$"
#10
0#"
#15
b1 }
b1 1"
b1 P"
b0 |
b0 0"
b0 N"
b0 V"
b0 {
b0 /"
b0 M"
b0 U"
1O"
b1000001 W"
b1000 X"
b110 Y"
18"
1#"
#20
0#"
#25
1t
1("
b0 s
b0 '"
b0 J"
b0 T"
b1000000001 W"
b0 X"
b1000 Y"
1#"
#30
0#"
#35
1v
0t
b0 }
b0 1"
b0 P"
1+"
0("
1y
b10 s
b10 '"
b10 J"
b10 T"
b1 |
b1 0"
b1 N"
b1 V"
b10 {
b10 /"
b10 M"
b10 U"
0O"
b1000101001100 W"
b1 X"
b0 Y"
1#"
#40
0#"
#45
0v
0+"
0y
b1001100 W"
b111 X"
b1 Y"
b101000 F"
b101000 R"
b10 I"
b10 ""
b11100010100000000010 !"
b11100010100000000010 &"
1#"
#50
0#"
#55
b0 |
b0 0"
b0 N"
b0 V"
b1 {
b1 /"
b1 M"
b1 U"
1O"
b1000011 W"
b1000 X"
b111 Y"
1#"
#60
0#"
#65
1t
1("
b0 s
b0 '"
b0 J"
b0 T"
b0 {
b0 /"
b0 M"
b0 U"
b1000000001 W"
b0 X"
b1000 Y"
1#"
#70
0#"
#75
1v
0t
1+"
0("
1y
b10 s
b10 '"
b10 J"
b10 T"
b1 |
b1 0"
b1 N"
b1 V"
b10 {
b10 /"
b10 M"
b10 U"
0O"
b1000101001100 W"
b1 X"
b0 Y"
1#"
#80
0#"
#85
0v
0+"
0y
b1001100 W"
b111 X"
b1 Y"
b11 I"
b11 ""
b11100010100000000011 !"
b11100010100000000011 &"
1#"
#90
0#"
#95
b0 |
b0 0"
b0 N"
b0 V"
b1 {
b1 /"
b1 M"
b1 U"
1O"
b1000011 W"
b1000 X"
b111 Y"
1#"
#100
0#"
#105
1t
1("
b0 s
b0 '"
b0 J"
b0 T"
b0 {
b0 /"
b0 M"
b0 U"
b1000000001 W"
b0 X"
b1000 Y"
1#"
#110
0#"
#115
1v
0t
1+"
0("
1y
b10 s
b10 '"
b10 J"
b10 T"
b1 |
b1 0"
b1 N"
b1 V"
b10 {
b10 /"
b10 M"
b10 U"
0O"
b1000101001100 W"
b1 X"
b0 Y"
1#"
#120
0#"
#125
0v
0+"
0y
b1001100 W"
b111 X"
b1 Y"
b100100 F"
b100100 R"
b111 I"
b100 ""
b11100010010000110111 !"
b11100010010000110111 &"
1#"
#130
0#"
#135
b1 }
b1 1"
b1 P"
b0 |
b0 0"
b0 N"
b0 V"
b1 {
b1 /"
b1 M"
b1 U"
1O"
b1000011 W"
b1000 X"
b111 Y"
1#"
#140
0#"
#145
1t
1("
b0 s
b0 '"
b0 J"
b0 T"
b0 {
b0 /"
b0 M"
b0 U"
b1000000001 W"
b0 X"
b1000 Y"
1#"
#150
0#"
#155
1v
0t
b0 }
b0 1"
b0 P"
1+"
0("
1y
b10 s
b10 '"
b10 J"
b10 T"
b1 |
b1 0"
b1 N"
b1 V"
b10 {
b10 /"
b10 M"
b10 U"
0O"
b1000101001100 W"
b1 X"
b0 Y"
1#"
#160
0#"
#165
0v
0+"
0y
b1001100 W"
b110 X"
b1 Y"
b11000 F"
b11000 R"
b100 I"
b101 ""
b11100001100001110100 !"
b11100001100001110100 &"
1#"
#170
0#"
#175
b11 }
b11 1"
b11 P"
b0 |
b0 0"
b0 N"
b0 V"
b0 {
b0 /"
b0 M"
b0 U"
1O"
b1000001 W"
b1000 X"
b110 Y"
1#"
#180
0#"
#185
1t
1("
b0 s
b0 '"
b0 J"
b0 T"
b1000000001 W"
b0 X"
b1000 Y"
1#"
#190
0#"
#195
1v
0t
b0 }
b0 1"
b0 P"
1+"
0("
1y
b10 s
b10 '"
b10 J"
b10 T"
b1 |
b1 0"
b1 N"
b1 V"
b10 {
b10 /"
b10 M"
b10 U"
0O"
b1000101001100 W"
b1 X"
b0 Y"
1#"
#200
0#"
#205
0v
0+"
0y
b1001100 W"
b110 X"
b1 Y"
b0 F"
b0 R"
b101 I"
b110 ""
b11100000000000110101 !"
b11100000000000110101 &"
1#"
#210
0#"
#215
b10 }
b10 1"
b10 P"
b0 |
b0 0"
b0 N"
b0 V"
b0 {
b0 /"
b0 M"
b0 U"
1O"
b1000001 W"
b1000 X"
b110 Y"
1#"
#220
0#"
#225
1t
1("
b0 s
b0 '"
b0 J"
b0 T"
b1000000001 W"
b0 X"
b1000 Y"
1#"
#230
0#"
#235
1v
0t
b0 }
b0 1"
b0 P"
1+"
0("
1y
b10 s
b10 '"
b10 J"
b10 T"
b1 |
b1 0"
b1 N"
b1 V"
b10 {
b10 /"
b10 M"
b10 U"
0O"
b1000101001100 W"
b1 X"
b0 Y"
1#"
#240
0#"
#245
0v
0+"
0y
b1001100 W"
b110 X"
b1 Y"
b1000 F"
b1000 R"
b111 ""
b11100000100001010101 !"
b11100000100001010101 &"
1#"
#250
0#"
#255
b0 |
b0 0"
b0 N"
b0 V"
b0 {
b0 /"
b0 M"
b0 U"
1O"
b1000001 W"
b1000 X"
b110 Y"
1#"
#260
0#"
#265
1t
1("
b0 s
b0 '"
b0 J"
b0 T"
b1000000001 W"
b0 X"
b1000 Y"
1#"
#270
0#"
#275
1v
0t
1+"
0("
1y
b10 s
b10 '"
b10 J"
b10 T"
b1 |
b1 0"
b1 N"
b1 V"
b10 {
b10 /"
b10 M"
b10 U"
0O"
b1000101001100 W"
b1 X"
b0 Y"
1#"
#280
0#"
#285
0v
0+"
0y
b1001100 W"
b110 X"
b1 Y"
b101 F"
b101 R"
b1000 I"
b1000 ""
b11100000010101011000 !"
b11100000010101011000 &"
1#"
#290
0#"
#295
1D"
1A"
b11 4"
b11 ."
b11 6"
b11 Q"
b1 }
b1 1"
b1 P"
b0 |
b0 0"
b0 N"
b0 V"
b0 {
b0 /"
b0 M"
b0 U"
1O"
b1000001 W"
b1000 X"
b110 Y"
1#"
#300
0#"
#305
1t
1("
b0 s
b0 '"
b0 J"
b0 T"
b1000000001 W"
b0 X"
b1000 Y"
1#"
#310
0#"
#315
0D"
0A"
b0 4"
1v
0t
b0 ."
b0 6"
b0 Q"
b0 }
b0 1"
b0 P"
1+"
0("
1y
b10 s
b10 '"
b10 J"
b10 T"
b1 |
b1 0"
b1 N"
b1 V"
b10 {
b10 /"
b10 M"
b10 U"
0O"
b1000101001100 W"
b1 X"
b0 Y"
1#"
#320
0#"
#325
0v
0+"
0y
b1001100 W"
b1001 X"
b1 Y"
07"
b10 x
b10 -"
b10 G"
b1 u
b1 )"
b1 K"
b10 H"
b10 S"
b100000 F"
b100000 R"
b0 I"
b0 3"
b0 9"
b1001 ""
b1010000000000000 !"
b1010000000000000 &"
1#"
#330
0#"
#335
1*"
1L"
b10 |
b10 0"
b10 N"
b10 V"
b1 {
b1 /"
b1 M"
b1 U"
b100001010010 W"
b0 X"
b1001 Y"
08"
1#"
#340
0#"
#345
1v
0*"
1+"
0L"
1y
b1 |
b1 0"
b1 N"
b1 V"
b10 {
b10 /"
b10 M"
b10 U"
b1000101001100 W"
b1 X"
b0 Y"
1#"
#350
0#"
#355
0v
0+"
0y
b1001100 W"
b110 X"
b1 Y"
17"
b0 x
b0 -"
b0 G"
b0 u
b0 )"
b0 K"
b0 H"
b0 S"
b101 F"
b101 R"
b1000 I"
b1110 3"
b1110 9"
b1010 ""
b11100000010100111000 !"
b11100000010100111000 &"
1#"
#360
0#"
#365
1D"
1A"
b11 4"
b11 ."
b11 6"
b11 Q"
b1 }
b1 1"
b1 P"
b0 |
b0 0"
b0 N"
b0 V"
b0 {
b0 /"
b0 M"
b0 U"
1O"
b1000001 W"
b1000 X"
18"
b110 Y"
1#"
#370
0#"
#375
1t
1("
b0 s
b0 '"
b0 J"
b0 T"
b1000000001 W"
b0 X"
b1000 Y"
1#"
#380
0#"
#385
0D"
0A"
b0 4"
1v
0t
b0 ."
b0 6"
b0 Q"
b0 }
b0 1"
b0 P"
1+"
0("
1y
b10 s
b10 '"
b10 J"
b10 T"
b1 |
b1 0"
b1 N"
b1 V"
b10 {
b10 /"
b10 M"
b10 U"
0O"
b1000101001100 W"
b1 X"
b0 Y"
1#"
#390
0#"
#395
0v
0+"
0y
b1001100 W"
b1001 X"
b1 Y"
b10 x
b10 -"
b10 G"
b1 u
b1 )"
b1 K"
b10 H"
b10 S"
b100000 F"
b100000 R"
b0 I"
b1010 3"
b1010 9"
b1011 ""
b10101010000000000000 !"
b10101010000000000000 &"
1#"
#400
0#"
#405
1v
1*"
1L"
b10 |
b10 0"
b10 N"
b10 V"
b1 {
b1 /"
b1 M"
b1 U"
b100001010010 W"
b0 X"
b1001 Y"
1#"
#410
0#"
#415
0*"
1+"
0L"
1y
b1 |
b1 0"
b1 N"
b1 V"
b10 {
b10 /"
b10 M"
b10 U"
b1000101001100 W"
b1 X"
b0 Y"
1#"
#420
0#"
#425
0v
0+"
0y
b1001100 W"
b111 X"
b1 Y"
b0 x
b0 -"
b0 G"
b0 u
b0 )"
b0 K"
b0 H"
b0 S"
b101000 F"
b101000 R"
b101 I"
b1110 3"
b1110 9"
b1100 ""
b11100010100000000101 !"
b11100010100000000101 &"
1#"
#430
0#"
#435
b0 |
b0 0"
b0 N"
b0 V"
b1 {
b1 /"
b1 M"
b1 U"
1O"
b1000011 W"
b1000 X"
b111 Y"
1#"
#440
0#"
#445
1t
1("
b0 s
b0 '"
b0 J"
b0 T"
b0 {
b0 /"
b0 M"
b0 U"
b1000000001 W"
b0 X"
b1000 Y"
1#"
#450
0#"
#455
1v
0t
1+"
0("
1y
b10 s
b10 '"
b10 J"
b10 T"
b1 |
b1 0"
b1 N"
b1 V"
b10 {
b10 /"
b10 M"
b10 U"
0O"
b1000101001100 W"
b1 X"
b0 Y"
1#"
#460
0#"
#465
0v
0+"
0y
b1001100 W"
b110 X"
b1 Y"
b101 F"
b101 R"
b1000 I"
b1101 ""
b11100000010101111000 !"
b11100000010101111000 &"
1#"
#470
0#"
#475
1D"
1A"
b11 4"
b11 ."
b11 6"
b11 Q"
b1 }
b1 1"
b1 P"
b0 |
b0 0"
b0 N"
b0 V"
b0 {
b0 /"
b0 M"
b0 U"
1O"
b1000001 W"
b1000 X"
b110 Y"
1#"
#480
0#"
#485
1t
1("
b0 s
b0 '"
b0 J"
b0 T"
b1000000001 W"
b0 X"
b1000 Y"
1#"
#490
0#"
#495
0D"
0A"
b0 4"
1v
0t
b0 ."
b0 6"
b0 Q"
b0 }
b0 1"
b0 P"
1+"
0("
1y
b10 s
b10 '"
b10 J"
b10 T"
b1 |
b1 0"
b1 N"
b1 V"
b10 {
b10 /"
b10 M"
b10 U"
0O"
b1000101001100 W"
b1 X"
b0 Y"
1#"
#500
0#"
#505
0v
0+"
0y
b1001100 W"
b111 X"
b1 Y"
07"
b101000 F"
b101000 R"
b111 I"
b1011 3"
b1011 9"
b1110 ""
b10110010100001010111 !"
b10110010100001010111 &"
1#"
#510
0#"
#515
b0 |
b0 0"
b0 N"
b0 V"
b1 {
b1 /"
b1 M"
b1 U"
1O"
b1000011 W"
b1000 X"
b111 Y"
08"
1#"
#520
0#"
#525
1("
b0 s
b0 '"
b0 J"
b0 T"
b0 {
b0 /"
b0 M"
b0 U"
b1000000001 W"
b0 X"
b1000 Y"
1#"
#530
0#"
#535
1v
1+"
0("
1y
b10 s
b10 '"
b10 J"
b10 T"
b1 |
b1 0"
b1 N"
b1 V"
b10 {
b10 /"
b10 M"
b10 U"
0O"
b1000101001100 W"
b1 X"
b0 Y"
1#"
#540
0#"
#545
0v
0+"
0y
b1001100 W"
b110 X"
b1 Y"
17"
b100 F"
b100 R"
b1110 3"
b1110 9"
b1111 ""
b11100000010001110111 !"
b11100000010001110111 &"
1#"
#550
0#"
#555
b1 }
b1 1"
b1 P"
b0 |
b0 0"
b0 N"
b0 V"
b0 {
b0 /"
b0 M"
b0 U"
1O"
b1000001 W"
b1000 X"
b110 Y"
18"
1#"
#560
0#"
#565
1t
1("
b0 s
b0 '"
b0 J"
b0 T"
b1000000001 W"
b0 X"
b1000 Y"
1#"
#570
0#"
#575
1v
0t
b0 }
b0 1"
b0 P"
1+"
0("
1y
b10 s
b10 '"
b10 J"
b10 T"
b1 |
b1 0"
b1 N"
b1 V"
b10 {
b10 /"
b10 M"
b10 U"
0O"
b1000101001100 W"
b1 X"
b0 Y"
1#"
#580
0#"
#585
0v
0+"
0y
b1001100 W"
b10 X"
b1 Y"
b1 x
b1 -"
b1 G"
b10 u
b10 )"
b10 K"
b1 H"
b1 S"
b11000 F"
b11000 R"
b10000 ""
b11100101100000110111 !"
b11100101100000110111 &"
1#"
#590
0#"
#595
b0 |
b0 0"
b0 N"
b0 V"
b1 {
b1 /"
b1 M"
b1 U"
b1000010 W"
b101 X"
b10 Y"
1#"
#600
0#"
#605
1w
1,"
1z
b0 s
b0 '"
b0 J"
b0 T"
b10010000010 W"
b0 X"
b101 Y"
1#"
#610
0#"
#615
1v
0w
1+"
0,"
1y
0z
b10 s
b10 '"
b10 J"
b10 T"
b1 |
b1 0"
b1 N"
b1 V"
b10 {
b10 /"
b10 M"
b10 U"
b1000101001100 W"
b1 X"
b0 Y"
1#"
#620
0#"
#625
0v
0+"
0y
b1001100 W"
b10 X"
b1 Y"
b11001 F"
b11001 R"
b10 I"
b10001 ""
b11100101100100000010 !"
b11100101100100000010 &"
1#"
#630
0#"
#635
b0 |
b0 0"
b0 N"
b0 V"
b1 {
b1 /"
b1 M"
b1 U"
b1000010 W"
b11 X"
b10 Y"
1#"
#640
0#"
#645
1z
b0 s
b0 '"
b0 J"
b0 T"
b10000010 W"
b100 X"
b11 Y"
1#"
#650
0#"
#655
1w
1,"
b10010000010 W"
b0 X"
b100 Y"
1#"
#660
0#"
#665
1v
0w
1+"
0,"
1y
0z
b10 s
b10 '"
b10 J"
b10 T"
b1 |
b1 0"
b1 N"
b1 V"
b10 {
b10 /"
b10 M"
b10 U"
b1000101001100 W"
b1 X"
b0 Y"
1#"
#670
0#"
#675
0v
0+"
0y
b1001100 W"
b110 X"
b1 Y"
b0 x
b0 -"
b0 G"
b0 u
b0 )"
b0 K"
b0 H"
b0 S"
b1000 F"
b1000 R"
b1111 I"
b10010 ""
b11100000100011111111 !"
b11100000100011111111 &"
1#"
#680
0#"
#685
b0 |
b0 0"
b0 N"
b0 V"
b0 {
b0 /"
b0 M"
b0 U"
1O"
b1000001 W"
b1000 X"
b110 Y"
1#"
#690
0#"
#695
1v
1*"
1t
1("
b0 s
b0 '"
b0 J"
b0 T"
b1000000001 W"
b0 X"
b1000 Y"
1#"
#700
0#"
#705
0*"
0t
1+"
0("
1y
b10 s
b10 '"
b10 J"
b10 T"
b1 |
b1 0"
b1 N"
b1 V"
b10 {
b10 /"
b10 M"
b10 U"
0O"
b1000101001100 W"
b1 X"
b0 Y"
1#"
#710
0#"
#715
0v
0+"
0y
b1001100 W"
b111 X"
b1 Y"
b101000 F"
b101000 R"
b10 I"
b10011 ""
b11100010100000000010 !"
b11100010100000000010 &"
1#"
#720
0#"
#725
b0 |
b0 0"
b0 N"
b0 V"
b1 {
b1 /"
b1 M"
b1 U"
1O"
b1000011 W"
b1000 X"
b111 Y"
1#"
#730
0#"
#735
1t
1("
b0 s
b0 '"
b0 J"
b0 T"
b0 {
b0 /"
b0 M"
b0 U"
b1000000001 W"
b0 X"
b1000 Y"
1#"
#740
0#"
#745
1v
0t
1+"
0("
1y
b10 s
b10 '"
b10 J"
b10 T"
b1 |
b1 0"
b1 N"
b1 V"
b10 {
b10 /"
b10 M"
b10 U"
0O"
b1000101001100 W"
b1 X"
b0 Y"
1#"
#750
0#"
#755
0v
0+"
0y
b1001100 W"
b1001 X"
b1 Y"
b10 x
b10 -"
b10 G"
b1 u
b1 )"
b1 K"
b10 H"
b10 S"
b100000 F"
b100000 R"
b0 I"
b10100 ""
b11101010000000000000 !"
b11101010000000000000 &"
1#"
#760
0#"
#765
1v
1*"
1L"
b10 |
b10 0"
b10 N"
b10 V"
b1 {
b1 /"
b1 M"
b1 U"
b100001010010 W"
b0 X"
b1001 Y"
1#"
#770
0#"
#775
0*"
1+"
0L"
1y
b1 |
b1 0"
b1 N"
b1 V"
b10 {
b10 /"
b10 M"
b10 U"
b1000101001100 W"
b1 X"
b0 Y"
1#"
#780
0#"
#785
0v
0+"
0y
b1001100 W"
b111 X"
b1 Y"
b0 x
b0 -"
b0 G"
b0 u
b0 )"
b0 K"
b0 H"
b0 S"
b101000 F"
b101000 R"
b10 I"
b10101 ""
b11100010100000000010 !"
b11100010100000000010 &"
1#"
#790
0#"
#795
b0 |
b0 0"
b0 N"
b0 V"
b1 {
b1 /"
b1 M"
b1 U"
1O"
b1000011 W"
b1000 X"
b111 Y"
1#"
#800
0#"
#805
1t
1("
b0 s
b0 '"
b0 J"
b0 T"
b0 {
b0 /"
b0 M"
b0 U"
b1000000001 W"
b0 X"
b1000 Y"
1#"
#810
0#"
#815
1v
0t
1+"
0("
1y
b10 s
b10 '"
b10 J"
b10 T"
b1 |
b1 0"
b1 N"
b1 V"
b10 {
b10 /"
b10 M"
b10 U"
0O"
b1000101001100 W"
b1 X"
b0 Y"
1#"
#820
0#"
#825
0v
0+"
0y
b1001100 W"
b111 X"
b1 Y"
b10110 ""
1#"
#830
0#"
#835
b0 |
b0 0"
b0 N"
b0 V"
b1 {
b1 /"
b1 M"
b1 U"
1O"
b1000011 W"
b1000 X"
b111 Y"
1#"
#840
0#"
#845
1t
1("
b0 s
b0 '"
b0 J"
b0 T"
b0 {
b0 /"
b0 M"
b0 U"
b1000000001 W"
b0 X"
b1000 Y"
1#"
#850
0#"
#855
1v
0t
1+"
0("
1y
b10 s
b10 '"
b10 J"
b10 T"
b1 |
b1 0"
b1 N"
b1 V"
b10 {
b10 /"
b10 M"
b10 U"
0O"
b1000101001100 W"
b1 X"
b0 Y"
1#"
#860
0#"
#865
0v
0+"
0y
b1001100 W"
b10 X"
b1 Y"
b1 x
b1 -"
b1 G"
b10 u
b10 )"
b10 K"
b1 H"
b1 S"
b11000 F"
b11000 R"
b10111 ""
b11100101100000000010 !"
b11100101100000000010 &"
1#"
#870
0#"
#875
b0 |
b0 0"
b0 N"
b0 V"
b1 {
b1 /"
b1 M"
b1 U"
b1000010 W"
b101 X"
b10 Y"
1#"
#880
0#"
#885
1w
1,"
1z
b0 s
b0 '"
b0 J"
b0 T"
b10010000010 W"
b0 X"
b101 Y"
1#"
#890
0#"
