lab6/segundaparte/archivos/waveform.vcd
$date
	Wed Jun 21 16:01:13 2023
$end
$version
	Icarus Verilog
$end
$timescale
	1s
$end
$scope module testbench $end
$var wire 32 ! WriteData [31:0] $end
$var wire 1 " MemWrite $end
$var wire 32 # DataAdr [31:0] $end
$var reg 1 $ clk $end
$var reg 1 % reset $end
$scope module dut $end
$var wire 1 $ clk $end
$var wire 1 % reset $end
$var wire 32 & WriteData [31:0] $end
$var wire 32 ' ReadData [31:0] $end
$var wire 1 " MemWrite $end
$var wire 32 ( Adr [31:0] $end
$scope module arm $end
$var wire 1 $ clk $end
$var wire 1 % reset $end
$var wire 32 ) WriteData [31:0] $end
$var wire 2 * ResultSrc [1:0] $end
$var wire 1 + RegWrite $end
$var wire 2 , RegSrc [1:0] $end
$var wire 32 - ReadData [31:0] $end
$var wire 1 . PCWrite $end
$var wire 1 " MemWrite $end
$var wire 32 / Instr [31:0] $end
$var wire 2 0 ImmSrc [1:0] $end
$var wire 1 1 IRWrite $end
$var wire 1 2 AdrSrc $end
$var wire 32 3 Adr [31:0] $end
$var wire 2 4 ALUSrcB [1:0] $end
$var wire 2 5 ALUSrcA [1:0] $end
$var wire 4 6 ALUFlags [3:0] $end
$var wire 2 7 ALUControl [1:0] $end
$scope module c $end
$var wire 20 8 Instr [31:12] $end
$var wire 1 $ clk $end
$var wire 1 % reset $end
$var wire 2 9 ResultSrc [1:0] $end
$var wire 1 + RegWrite $end
$var wire 1 : RegW $end
$var wire 2 ; RegSrc [1:0] $end
$var wire 1 . PCWrite $end
$var wire 1 < PCS $end
$var wire 1 = NextPC $end
$var wire 1 " MemWrite $end
$var wire 1 > MemW $end
$var wire 2 ? ImmSrc [1:0] $end
$var wire 1 1 IRWrite $end
$var wire 2 @ FlagW [1:0] $end
$var wire 1 2 AdrSrc $end
$var wire 2 A ALUSrcB [1:0] $end
$var wire 2 B ALUSrcA [1:0] $end
$var wire 4 C ALUFlags [3:0] $end
$var wire 2 D ALUControl [1:0] $end
$scope module cl $end
$var wire 4 E Cond [3:0] $end
$var wire 2 F FlagWrite [1:0] $end
$var wire 1 " MemWrite $end
$var wire 1 . PCWrite $end
$var wire 1 + RegWrite $end
$var wire 1 $ clk $end
$var wire 1 % reset $end
$var wire 1 : RegW $end
$var wire 1 < PCS $end
$var wire 1 = NextPC $end
$var wire 1 > MemW $end
$var wire 4 G Flags [3:0] $end
$var wire 2 H FlagW [1:0] $end
$var wire 1 I CondEx $end
$var wire 1 J AfterCondEx $end
$var wire 4 K ALUFlags [3:0] $end
$scope module cc $end
$var wire 4 L Cond [3:0] $end
$var wire 4 M Flags [3:0] $end
$var wire 1 N ge $end
$var wire 1 O zero $end
$var wire 1 P overflow $end
$var wire 1 Q neg $end
$var wire 1 R carry $end
$var reg 1 I CondEx $end
$upscope $end
$scope module flagreg0 $end
$var wire 1 $ clk $end
$var wire 2 S d [1:0] $end
$var wire 1 T en $end
$var wire 1 % reset $end
$var reg 2 U q [1:0] $end
$upscope $end
$scope module flagreg1 $end
$var wire 1 $ clk $end
$var wire 2 V d [1:0] $end
$var wire 1 W en $end
$var wire 1 % reset $end
$var reg 2 X q [1:0] $end
$upscope $end
$scope module flagwritereg $end
$var wire 1 $ clk $end
$var wire 1 I d $end
$var wire 1 % reset $end
$var reg 1 J q $end
$upscope $end
$upscope $end
$scope module dec $end
$var wire 6 Y Funct [5:0] $end
$var wire 2 Z ImmSrc [1:0] $end
$var wire 2 [ Op [1:0] $end
$var wire 1 < PCS $end
$var wire 4 \ Rd [3:0] $end
$var wire 1 $ clk $end
$var wire 1 % reset $end
$var wire 2 ] ResultSrc [1:0] $end
$var wire 1 : RegW $end
$var wire 2 ^ RegSrc [1:0] $end
$var wire 1 = NextPC $end
$var wire 1 > MemW $end
$var wire 1 1 IRWrite $end
$var wire 1 _ Branch $end
$var wire 1 2 AdrSrc $end
$var wire 2 ` ALUSrcB [1:0] $end
$var wire 2 a ALUSrcA [1:0] $end
$var wire 1 b ALUOp $end
$var reg 2 c ALUControl [1:0] $end
$var reg 2 d FlagW [1:0] $end
$scope module fsm $end
$var wire 6 e Funct [5:0] $end
$var wire 2 f Op [1:0] $end
$var wire 1 $ clk $end
$var wire 1 % reset $end
$var wire 2 g ResultSrc [1:0] $end
$var wire 1 : RegW $end
$var wire 1 = NextPC $end
$var wire 1 > MemW $end
$var wire 1 1 IRWrite $end
$var wire 1 _ Branch $end
$var wire 1 2 AdrSrc $end
$var wire 2 h ALUSrcB [1:0] $end
$var wire 2 i ALUSrcA [1:0] $end
$var wire 1 b ALUOp $end
$var reg 13 j controls [12:0] $end
$var reg 4 k nextstate [3:0] $end
$var reg 4 l state [3:0] $end
$upscope $end
$upscope $end
$upscope $end
$scope module dp $end
$var wire 2 m ALUControl [1:0] $end
$var wire 2 n ALUSrcA [1:0] $end
$var wire 2 o ALUSrcB [1:0] $end
$var wire 1 2 AdrSrc $end
$var wire 1 1 IRWrite $end
$var wire 2 p ImmSrc [1:0] $end
$var wire 1 . PCWrite $end
$var wire 2 q RegSrc [1:0] $end
$var wire 1 + RegWrite $end
$var wire 2 r ResultSrc [1:0] $end
$var wire 1 $ clk $end
$var wire 1 % reset $end
$var wire 32 s WriteData [31:0] $end
$var wire 32 t SrcB [31:0] $end
$var wire 32 u SrcA [31:0] $end
$var wire 32 v Result [31:0] $end
$var wire 32 w ReadData [31:0] $end
$var wire 32 x RD2 [31:0] $end
$var wire 32 y RD1 [31:0] $end
$var wire 4 z RA2 [3:0] $end
$var wire 4 { RA1 [3:0] $end
$var wire 32 | PC [31:0] $end
$var wire 32 } Instr [31:0] $end
$var wire 32 ~ ExtImm [31:0] $end
$var wire 32 !" Data [31:0] $end
$var wire 32 "" Adr [31:0] $end
$var wire 32 #" ALUResult [31:0] $end
$var wire 32 $" ALUOut [31:0] $end
$var wire 4 %" ALUFlags [3:0] $end
$var wire 32 &" A [31:0] $end
$scope module ADRmux $end
$var wire 1 2 s $end
$var wire 32 '" y [31:0] $end
$var wire 32 (" d1 [31:0] $end
$var wire 32 )" d0 [31:0] $end
$upscope $end
$scope module ALUOUTreg $end
$var wire 1 $ clk $end
$var wire 1 % reset $end
$var wire 32 *" d [31:0] $end
$var reg 32 +" q [31:0] $end
$upscope $end
$scope module BloqueAlu $end
$var wire 2 ," ALUControl [1:0] $end
$var wire 1 -" carry $end
$var wire 1 ." overflow $end
$var wire 1 /" zero $end
$var wire 33 0" sum [32:0] $end
$var wire 1 1" neg $end
$var wire 32 2" SrcB [31:0] $end
$var wire 32 3" SrcA [31:0] $end
$var wire 4 4" ALUFlags [3:0] $end
$var reg 32 5" ALUResult [31:0] $end
$upscope $end
$scope module BloqueExtend $end
$var wire 2 6" ImmSrc [1:0] $end
$var wire 24 7" Instr [23:0] $end
$var reg 32 8" ExtImm [31:0] $end
$upscope $end
$scope module PCreg $end
$var wire 1 $ clk $end
$var wire 1 . en $end
$var wire 1 % reset $end
$var wire 32 9" d [31:0] $end
$var reg 32 :" q [31:0] $end
$upscope $end
$scope module RA1mux $end
$var wire 4 ;" d0 [3:0] $end
$var wire 4 <" d1 [3:0] $end
$var wire 1 =" s $end
$var wire 4 >" y [3:0] $end
$upscope $end
$scope module RA2mux $end
$var wire 4 ?" d0 [3:0] $end
$var wire 4 @" d1 [3:0] $end
$var wire 1 A" s $end
$var wire 4 B" y [3:0] $end
$upscope $end
$scope module REGdata $end
$var wire 1 $ clk $end
$var wire 1 % reset $end
$var wire 32 C" d [31:0] $end
$var reg 32 D" q [31:0] $end
$upscope $end
$scope module REGinstr $end
$var wire 1 $ clk $end
$var wire 1 1 en $end
$var wire 1 % reset $end
$var wire 32 E" d [31:0] $end
$var reg 32 F" q [31:0] $end
$upscope $end
$scope module RegisterA0 $end
$var wire 1 $ clk $end
$var wire 1 % reset $end
$var wire 32 G" d [31:0] $end
$var reg 32 H" q [31:0] $end
$upscope $end
$scope module RegisterA1 $end
$var wire 1 $ clk $end
$var wire 1 % reset $end
$var wire 32 I" d [31:0] $end
$var reg 32 J" q [31:0] $end
$upscope $end
$scope module RegisterFile $end
$var wire 1 $ clk $end
$var wire 4 K" ra1 [3:0] $end
$var wire 4 L" ra2 [3:0] $end
$var wire 4 M" wa3 [3:0] $end
$var wire 1 + we3 $end
$var wire 32 N" wd3 [31:0] $end
$var wire 32 O" rd2 [31:0] $end
$var wire 32 P" rd1 [31:0] $end
$var wire 32 Q" r15 [31:0] $end
$upscope $end
$scope module ResultMux $end
$var wire 32 R" d0 [31:0] $end
$var wire 32 S" d1 [31:0] $end
$var wire 32 T" d2 [31:0] $end
$var wire 2 U" s [1:0] $end
$var wire 32 V" y [31:0] $end
$upscope $end
$scope module SrcAmux $end
$var wire 32 W" d0 [31:0] $end
$var wire 32 X" d1 [31:0] $end
$var wire 32 Y" d2 [31:0] $end
$var wire 2 Z" s [1:0] $end
$var wire 32 [" y [31:0] $end
$upscope $end
$scope module SrcBmux $end
$var wire 32 \" d0 [31:0] $end
$var wire 32 ]" d1 [31:0] $end
$var wire 32 ^" d2 [31:0] $end
$var wire 2 _" s [1:0] $end
$var wire 32 `" y [31:0] $end
$upscope $end
$upscope $end
$upscope $end
$scope module mem $end
$var wire 32 a" a [31:0] $end
$var wire 1 $ clk $end
$var wire 32 b" rd [31:0] $end
$var wire 32 c" wd [31:0] $end
$var wire 1 " we $end
$upscope $end
$upscope $end
$upscope $end
$enddefinitions $end
#0
$dumpvars
b0 c"
b11100000010011110000000000001111 b"
b0 a"
b100 `"
b10 _"
b100 ^"
b0 ]"
b0 \"
b0 ["
b1 Z"
b0 Y"
b0 X"
b0 W"
b100 V"
b10 U"
b100 T"
b0 S"
b0 R"
b100 Q"
bx P"
bx O"
b100 N"
b0 M"
b0 L"
b0 K"
b0 J"
bx I"
b0 H"
bx G"
b0 F"
b11100000010011110000000000001111 E"
b0 D"
b11100000010011110000000000001111 C"
b0 B"
0A"
b0 @"
b0 ?"
b0 >"
0="
b1111 <"
b0 ;"
b0 :"
b100 9"
b0 8"
b0 7"
b0 6"
b100 5"
b0 4"
b0 3"
b100 2"
01"
b100 0"
0/"
0."
0-"
b0 ,"
b0 +"
b100 *"
b0 )"
b100 ("
b0 '"
b0 &"
b0 %"
b0 $"
b100 #"
b0 ""
b0 !"
b0 ~
b0 }
b0 |
b0 {
b0 z
bx y
bx x
b11100000010011110000000000001111 w
b100 v
b0 u
b100 t
b0 s
b10 r
b0 q
b0 p
b10 o
b1 n
b0 m
b0 l
b1 k
b1000101001100 j
b1 i
b10 h
b10 g
b0 f
b0 e
b0 d
b0 c
0b
b1 a
b10 `
0_
b0 ^
b10 ]
b0 \
b0 [
b0 Z
b0 Y
b0 X
0W
b0 V
b0 U
0T
b0 S
0R
0Q
0P
0O
1N
b0 M
b0 L
b0 K
0J
0I
b0 H
b0 G
b0 F
b0 E
b0 D
b0 C
b1 B
b10 A
b0 @
b0 ?
0>
1=
0<
b0 ;
0:
b10 9
b0 8
b0 7
b0 6
b1 5
b10 4
b0 3
02
11
b0 0
b0 /
1.
b11100000010011110000000000001111 -
b0 ,
0+
b10 *
b0 )
b0 (
b11100000010011110000000000001111 '
b0 &
1%
1$
b0 #
0"
b0 !
$end
#5
0$
#10
1$
#15
0$
#20
1$
#22
0%
#25
0$
#30
b1000 v
b1000 ("
b1000 9"
b1000 N"
b1000 Q"
b1000 V"
b1000 x
b1000 G"
b1000 O"
b1000 y
b1000 I"
b1000 P"
1I
b1000 #"
b1000 *"
b1000 5"
b1000 T"
0.
b1111 ~
b1111 8"
b1111 ]"
b1111 z
b1111 B"
b1111 L"
b1111 {
b1111 >"
b1111 K"
b100 Y
b100 e
b1110 E
b1110 L
b1000 0"
b100 u
b100 3"
b100 ["
b11100010100000000010000000000101 '
b11100010100000000010000000000101 -
b11100010100000000010000000000101 w
b11100010100000000010000000000101 C"
b11100010100000000010000000000101 E"
b11100010100000000010000000000101 b"
0=
01
b10011110000000000001111 7"
b1111 ?"
b1111 ;"
b11100000010011110000 8
b100 #
b100 (
b100 3
b100 ""
b100 '"
b100 a"
b1001100 j
b110 k
b100 $"
b100 +"
b100 R"
b100 Y"
bx !
bx &
bx )
bx s
bx H"
bx \"
bx c"
bx &"
bx J"
bx W"
b11100000010011110000000000001111 !"
b11100000010011110000000000001111 D"
b11100000010011110000000000001111 S"
b11100000010011110000000000001111 /
b11100000010011110000000000001111 }
b11100000010011110000000000001111 F"
b100 |
b100 )"
b100 :"
b100 X"
b1 l
1$
#35
0$
#40
b1 V
b1000 u
b1000 3"
b1000 ["
b100 6
b100 C
b100 K
b100 %"
b100 4"
1/"
b0 #"
b0 *"
b0 5"
b0 T"
b0 0"
b1000 t
b1000 2"
b1000 `"
b1 7
b1 D
b1 c
b1 m
b1 ,"
b0 *
b0 9
b0 ]
b0 g
b0 r
b0 U"
b0 5
b0 B
b0 a
b0 i
b0 n
b0 Z"
b0 4
b0 A
b0 `
b0 h
b0 o
b0 _"
1b
b1 j
b1000 k
b110 l
1J
b11100010100000000010000000000101 !"
b11100010100000000010000000000101 D"
b11100010100000000010000000000101 S"
b1000 &"
b1000 J"
b1000 W"
b1000 !
b1000 &
b1000 )
b1000 s
b1000 H"
b1000 \"
b1000 c"
b1000 $"
b1000 +"
b1000 R"
b1000 Y"
1$
#45
0$
#50
b0 V
b0 6
b0 C
b0 K
b0 %"
b0 4"
0/"
b10000 #"
b10000 *"
b10000 5"
b10000 T"
b10000 0"
b0 x
b0 G"
b0 O"
b0 y
b0 I"
b0 P"
1+
b0 7
b0 D
b0 c
b0 m
b0 ,"
b0 v
b0 ("
b0 9"
b0 N"
b0 Q"
b0 V"
1:
0b
b1000000000 j
b0 k
b0 $"
b0 +"
b0 R"
b0 Y"
b1000 l
1$
#55
0$
#60
b0 V
b0 6
b0 C
b0 K
b0 %"
b0 4"
0/"
1.
0+
b1000 #"
b1000 *"
b1000 5"
b1000 T"
b1000 x
b1000 G"
b1000 O"
b1000 y
b1000 I"
b1000 P"
1=
0:
11
b10 *
b10 9
b10 ]
b10 g
b10 r
b10 U"
b1 5
b1 B
b1 a
b1 i
b1 n
b1 Z"
b10 4
b10 A
b10 `
b10 h
b10 o
b10 _"
b1000 0"
b100 u
b100 3"
b100 ["
b100 t
b100 2"
b100 `"
b1000 v
b1000 ("
b1000 9"
b1000 N"
b1000 Q"
b1000 V"
b1000101001100 j
b1 k
b0 l
b0 &"
b0 J"
b0 W"
b0 !
b0 &
b0 )
b0 s
b0 H"
b0 \"
b0 c"
b10000 $"
b10000 +"
b10000 R"
b10000 Y"
1$
#65
0$
#70
b1100 v
b1100 ("
b1100 9"
b1100 N"
b1100 Q"
b1100 V"
bx x
bx G"
bx O"
b0 y
b0 I"
b0 P"
b1100 #"
b1100 *"
b1100 5"
b1100 T"
0.
b101 ~
b101 8"
b101 ]"
b101 z
b101 B"
b101 L"
b0 {
b0 >"
b0 K"
b101000 Y
b101000 e
b10 \
b1100 0"
b1000 u
b1000 3"
b1000 ["
b11100010100000000011000000001100 '
b11100010100000000011000000001100 -
b11100010100000000011000000001100 w
b11100010100000000011000000001100 C"
b11100010100000000011000000001100 E"
b11100010100000000011000000001100 b"
0=
01
b10 M"
b100000000010000000000101 7"
b10 @"
b101 ?"
b0 ;"
b11100010100000000010 8
b1000 #
b1000 (
b1000 3
b1000 ""
b1000 '"
b1000 a"
b1001100 j
b111 k
b1000 $"
b1000 +"
b1000 R"
b1000 Y"
b1000 !
b1000 &
b1000 )
b1000 s
b1000 H"
b1000 \"
b1000 c"
b1000 &"
b1000 J"
b1000 W"
b11100010100000000010000000000101 /
b11100010100000000010000000000101 }
b11100010100000000010000000000101 F"
b1000 |
b1000 )"
b1000 :"
b1000 X"
b1 l
1$
#75
0$
#80
b101 #"
b101 *"
b101 5"
b101 T"
b0 u
b0 3"
b0 ["
b101 0"
b101 t
b101 2"
b101 `"
b0 *
b0 9
b0 ]
b0 g
b0 r
b0 U"
b0 5
b0 B
b0 a
b0 i
b0 n
b0 Z"
b1 4
b1 A
b1 `
b1 h
b1 o
b1 _"
1b
b11 j
b1000 k
b111 l
b11100010100000000011000000001100 !"
b11100010100000000011000000001100 D"
b11100010100000000011000000001100 S"
b0 &"
b0 J"
b0 W"
bx !
bx &
bx )
bx s
bx H"
bx \"
bx c"
b1100 $"
b1100 +"
b1100 R"
b1100 Y"
1$
#85
0$
#90
bx S
x."
x-"
x1"
bx V
bx 6
bx C
bx K
bx %"
bx 4"
x/"
bx #"
bx *"
bx 5"
bx T"
bx 0"
bx t
bx 2"
bx `"
1+
b101 v
b101 ("
b101 9"
b101 N"
b101 Q"
b101 V"
1:
b0 4
b0 A
b0 `
b0 h
b0 o
b0 _"
0b
b1000000000 j
b0 k
b101 $"
b101 +"
b101 R"
b101 Y"
b1000 l
1$
#95
0$
#100
b0 S
0."
0-"
01"
b0 V
b0 6
b0 C
b0 K
b0 %"
b0 4"
0/"
b1100 #"
b1100 *"
b1100 5"
b1100 T"
b1000 u
b1000 3"
b1000 ["
b1100 0"
b100 t
b100 2"
b100 `"
1.
0+
1=
0:
11
b10 *
b10 9
b10 ]
b10 g
b10 r
b10 U"
b1 5
b1 B
b1 a
b1 i
b1 n
b1 Z"
b10 4
b10 A
b10 `
b10 h
b10 o
b10 _"
b1100 v
b1100 ("
b1100 9"
b1100 N"
b1100 Q"
b1100 V"
b1000101001100 j
b1 k
b0 l
bx $"
bx +"
bx R"
bx Y"
1$
#105
0$
#110
b10000 v
b10000 ("
b10000 9"
b10000 N"
b10000 Q"
b10000 V"
b10000 #"
b10000 *"
b10000 5"
b10000 T"
0.
b1100 ~
b1100 8"
b1100 ]"
b1100 z
b1100 B"
b1100 L"
b11 \
b10000 0"
b1100 u
b1100 3"
b1100 ["
b11100010010000110111000000001001 '
b11100010010000110111000000001001 -
b11100010010000110111000000001001 w
b11100010010000110111000000001001 C"
b11100010010000110111000000001001 E"
b11100010010000110111000000001001 b"
0=
01
b11 M"
b100000000011000000001100 7"
b11 @"
b1100 ?"
b11100010100000000011 8
b1100 #
b1100 (
b1100 3
b1100 ""
b1100 '"
b1100 a"
b1001100 j
b111 k
b1100 $"
b1100 +"
b1100 R"
b1100 Y"
b11100010100000000011000000001100 /
b11100010100000000011000000001100 }
b11100010100000000011000000001100 F"
b1100 |
b1100 )"
b1100 :"
b1100 X"
b1 l
1$
#115
0$
#120
b1100 #"
b1100 *"
b1100 5"
b1100 T"
b0 u
b0 3"
b0 ["
b1100 0"
b1100 t
b1100 2"
b1100 `"
b0 *
b0 9
b0 ]
b0 g
b0 r
b0 U"
b0 5
b0 B
b0 a
b0 i
b0 n
b0 Z"
b1 4
b1 A
b1 `
b1 h
b1 o
b1 _"
1b
b11 j
b1000 k
b111 l
b11100010010000110111000000001001 !"
b11100010010000110111000000001001 D"
b11100010010000110111000000001001 S"
b10000 $"
b10000 +"
b10000 R"
b10000 Y"
1$
#125
0$
#130
bx S
x."
x-"
x1"
bx V
bx 6
bx C
bx K
bx %"
bx 4"
x/"
bx #"
bx *"
bx 5"
bx T"
bx 0"
bx t
bx 2"
bx `"
1+
b1100 v
b1100 ("
b1100 9"
b1100 N"
b1100 Q"
b1100 V"
1:
b0 4
b0 A
b0 `
b0 h
b0 o
b0 _"
0b
b1000000000 j
b0 k
b1100 $"
b1100 +"
b1100 R"
b1100 Y"
b1000 l
1$
#135
0$
#140
b0 S
0."
0-"
01"
b0 V
b0 6
b0 C
b0 K
b0 %"
b0 4"
0/"
b10000 #"
b10000 *"
b10000 5"
b10000 T"
b1100 u
b1100 3"
b1100 ["
b10000 0"
b100 t
b100 2"
b100 `"
1.
0+
1=
0:
11
b10 *
b10 9
b10 ]
b10 g
b10 r
b10 U"
b1 5
b1 B
b1 a
b1 i
b1 n
b1 Z"
b10 4
b10 A
b10 `
b10 h
b10 o
b10 _"
b10000 v
b10000 ("
b10000 9"
b10000 N"
b10000 Q"
b10000 V"
b1000101001100 j
b1 k
b0 l
bx $"
bx +"
bx R"
bx Y"
1$
#145
0$
#150
b10100 v
b10100 ("
b10100 9"
b10100 N"
b10100 Q"
b10100 V"
b1100 y
b1100 I"
b1100 P"
b10100 #"
b10100 *"
b10100 5"
b10100 T"
0.
b1001 ~
b1001 8"
b1001 ]"
b1001 z
b1001 B"
b1001 L"
b11 {
b11 >"
b11 K"
b100100 Y
b100100 e
b111 \
b10100 0"
b10000 u
b10000 3"
b10000 ["
b11100001100001110100000000000010 '
b11100001100001110100000000000010 -
b11100001100001110100000000000010 w
b11100001100001110100000000000010 C"
b11100001100001110100000000000010 E"
b11100001100001110100000000000010 b"
0=
01
b111 M"
b10000110111000000001001 7"
b111 @"
b1001 ?"
b11 ;"
b11100010010000110111 8
b10000 #
b10000 (
b10000 3
b10000 ""
b10000 '"
b10000 a"
b1001100 j
b111 k
b10000 $"
b10000 +"
b10000 R"
b10000 Y"
b11100010010000110111000000001001 /
b11100010010000110111000000001001 }
b11100010010000110111000000001001 F"
b10000 |
b10000 )"
b10000 :"
b10000 X"
b1 l
1$
#155
0$
#160
b1100 u
b1100 3"
b1100 ["
b11 #"
b11 *"
b11 5"
b11 T"
b11 0"
b1001 t
b1001 2"
b1001 `"
b1 7
b1 D
b1 c
b1 m
b1 ,"
b0 *
b0 9
b0 ]
b0 g
b0 r
b0 U"
b0 5
b0 B
b0 a
b0 i
b0 n
b0 Z"
b1 4
b1 A
b1 `
b1 h
b1 o
b1 _"
1b
b11 j
b1000 k
b111 l
b11100001100001110100000000000010 !"
b11100001100001110100000000000010 D"
b11100001100001110100000000000010 S"
b1100 &"
b1100 J"
b1100 W"
b10100 $"
b10100 +"
b10100 R"
b10100 Y"
1$
#165
0$
#170
bx S
x."
x-"
x1"
bx V
bx 6
bx C
bx K
bx %"
bx 4"
x/"
bx #"
bx *"
bx 5"
bx T"
bx t
bx 2"
bx `"
bx 0"
1+
b0 7
b0 D
b0 c
b0 m
b0 ,"
b11 v
b11 ("
b11 9"
b11 N"
b11 Q"
b11 V"
1:
b0 4
b0 A
b0 `
b0 h
b0 o
b0 _"
0b
b1000000000 j
b0 k
b11 $"
b11 +"
b11 R"
b11 Y"
b1000 l
1$
#175
0$
#180
b0 S
0."
0-"
01"
b0 V
b0 6
b0 C
b0 K
b0 %"
b0 4"
0/"
b10100 #"
b10100 *"
b10100 5"
b10100 T"
b10000 u
b10000 3"
b10000 ["
b10100 0"
b100 t
b100 2"
b100 `"
1.
0+
1=
0:
11
b10 *
b10 9
b10 ]
b10 g
b10 r
b10 U"
b1 5
b1 B
b1 a
b1 i
b1 n
b1 Z"
b10 4
b10 A
b10 `
b10 h
b10 o
b10 _"
b10100 v
b10100 ("
b10100 9"
b10100 N"
b10100 Q"
b10100 V"
b1000101001100 j
b1 k
b0 l
bx $"
bx +"
bx R"
bx Y"
1$
#185
0$
#190
b11000 v
b11000 ("
b11000 9"
b11000 N"
b11000 Q"
b11000 V"
b101 x
b101 G"
b101 O"
b11 y
b11 I"
b11 P"
b11000 #"
b11000 *"
b11000 5"
b11000 T"
0.
b10 ~
b10 8"
b10 ]"
b10 z
b10 B"
b10 L"
b111 {
b111 >"
b111 K"
b11000 Y
b11000 e
b100 \
b11000 0"
b10100 u
b10100 3"
b10100 ["
b11100000000000110101000000000100 '
b11100000000000110101000000000100 -
b11100000000000110101000000000100 w
b11100000000000110101000000000100 C"
b11100000000000110101000000000100 E"
b11100000000000110101000000000100 b"
0=
01
b100 M"
b100001110100000000000010 7"
b100 @"
b10 ?"
b111 ;"
b11100001100001110100 8
b10100 #
b10100 (
b10100 3
b10100 ""
b10100 '"
b10100 a"
b1001100 j
b110 k
b10100 $"
b10100 +"
b10100 R"
b10100 Y"
b11100001100001110100000000000010 /
b11100001100001110100000000000010 }
b11100001100001110100000000000010 F"
b10100 |
b10100 )"
b10100 :"
b10100 X"
b1 l
1$
#195
0$
#200
b11 u
b11 3"
b11 ["
b111111111111111111111111111111110 0"
b101 t
b101 2"
b101 `"
b111 #"
b111 *"
b111 5"
b111 T"
b11 7
b11 D
b11 c
b11 m
b11 ,"
b0 *
b0 9
b0 ]
b0 g
b0 r
b0 U"
b0 5
b0 B
b0 a
b0 i
b0 n
b0 Z"
b0 4
b0 A
b0 `
b0 h
b0 o
b0 _"
1b
b1 j
b1000 k
b110 l
b11100000000000110101000000000100 !"
b11100000000000110101000000000100 D"
b11100000000000110101000000000100 S"
b11 &"
b11 J"
b11 W"
b101 !
b101 &
b101 )
b101 s
b101 H"
b101 \"
b101 c"
b11000 $"
b11000 +"
b11000 R"
b11000 Y"
1$
#205
0$
#210
b0 S
0."
b0 V
0-"
b0 6
b0 C
b0 K
b0 %"
b0 4"
01"
b1000 0"
b1000 #"
b1000 *"
b1000 5"
b1000 T"
1+
b0 7
b0 D
b0 c
b0 m
b0 ,"
b111 v
b111 ("
b111 9"
b111 N"
b111 Q"
b111 V"
1:
0b
b1000000000 j
b0 k
b111 $"
b111 +"
b111 R"
b111 Y"
b1000 l
1$
#215
0$
#220
b11000 #"
b11000 *"
b11000 5"
b11000 T"
b10100 u
b10100 3"
b10100 ["
b11000 0"
b100 t
b100 2"
b100 `"
1.
0+
1=
0:
11
b10 *
b10 9
b10 ]
b10 g
b10 r
b10 U"
b1 5
b1 B
b1 a
b1 i
b1 n
b1 Z"
b10 4
b10 A
b10 `
b10 h
b10 o
b10 _"
b11000 v
b11000 ("
b11000 9"
b11000 N"
b11000 Q"
b11000 V"
b1000101001100 j
b1 k
b0 l
b1000 $"
b1000 +"
b1000 R"
b1000 Y"
1$
#225
0$
#230
b11100 v
b11100 ("
b11100 9"
b11100 N"
b11100 Q"
b11100 V"
b111 x
b111 G"
b111 O"
b1100 y
b1100 I"
b1100 P"
b11100 #"
b11100 *"
b11100 5"
b11100 T"
0.
b100 ~
b100 8"
b100 ]"
b100 z
b100 B"
b100 L"
b11 {
b11 >"
b11 K"
b0 Y
b0 e
b101 \
b11100 0"
b11000 u
b11000 3"
b11000 ["
b11100000100001010101000000000100 '
b11100000100001010101000000000100 -
b11100000100001010101000000000100 w
b11100000100001010101000000000100 C"
b11100000100001010101000000000100 E"
b11100000100001010101000000000100 b"
0=
01
b101 M"
b110101000000000100 7"
b101 @"
b100 ?"
b11 ;"
b11100000000000110101 8
b11000 #
b11000 (
b11000 3
b11000 ""
b11000 '"
b11000 a"
b1001100 j
b110 k
b11000 $"
b11000 +"
b11000 R"
b11000 Y"
b11100000000000110101000000000100 /
b11100000000000110101000000000100 }
b11100000000000110101000000000100 F"
b11000 |
b11000 )"
b11000 :"
b11000 X"
b1 l
1$
#235
0$
#240
b1100 u
b1100 3"
b1100 ["
b10011 0"
b0 V
b111 t
b111 2"
b111 `"
b0 6
b0 C
b0 K
b0 %"
b0 4"
0/"
b100 #"
b100 *"
b100 5"
b100 T"
b10 7
b10 D
b10 c
b10 m
b10 ,"
b0 *
b0 9
b0 ]
b0 g
b0 r
b0 U"
b0 5
b0 B
b0 a
b0 i
b0 n
b0 Z"
b0 4
b0 A
b0 `
b0 h
b0 o
b0 _"
1b
b1 j
b1000 k
b110 l
b11100000100001010101000000000100 !"
b11100000100001010101000000000100 D"
b11100000100001010101000000000100 S"
b1100 &"
b1100 J"
b1100 W"
b111 !
b111 &
b111 )
b111 s
b111 H"
b111 \"
b111 c"
b11100 $"
b11100 +"
b11100 R"
b11100 Y"
1$
#245
0$
#250
b10011 #"
b10011 *"
b10011 5"
b10011 T"
1+
b0 7
b0 D
b0 c
b0 m
b0 ,"
b100 v
b100 ("
b100 9"
b100 N"
b100 Q"
b100 V"
1:
0b
b1000000000 j
b0 k
b100 $"
b100 +"
b100 R"
b100 Y"
b1000 l
1$
#255
0$
#260
b11100 #"
b11100 *"
b11100 5"
b11100 T"
b11000 u
b11000 3"
b11000 ["
b11100 0"
b100 t
b100 2"
b100 `"
1.
0+
1=
0:
11
b10 *
b10 9
b10 ]
b10 g
b10 r
b10 U"
b1 5
b1 B
b1 a
b1 i
b1 n
b1 Z"
b10 4
b10 A
b10 `
b10 h
b10 o
b10 _"
b11100 v
b11100 ("
b11100 9"
b11100 N"
b11100 Q"
b11100 V"
b1000101001100 j
b1 k
b0 l
b10011 $"
b10011 +"
b10011 R"
b10011 Y"
1$
#265
0$
#270
b100000 v
b100000 ("
b100000 9"
b100000 N"
b100000 Q"
b100000 V"
b100 y
b100 I"
b100 P"
b100000 #"
b100000 *"
b100000 5"
b100000 T"
0.
b101 {
b101 >"
b101 K"
b1000 Y
b1000 e
b100000 0"
b11100 u
b11100 3"
b11100 ["
b11100000010101011000000000000111 '
b11100000010101011000000000000111 -
b11100000010101011000000000000111 w
b11100000010101011000000000000111 C"
b11100000010101011000000000000111 E"
b11100000010101011000000000000111 b"
0=
01
b100001010101000000000100 7"
b101 ;"
b11100000100001010101 8
b11100 #
b11100 (
b11100 3
b11100 ""
b11100 '"
b11100 a"
b1001100 j
b110 k
b11100 $"
b11100 +"
b11100 R"
b11100 Y"
b11100000100001010101000000000100 /
b11100000100001010101000000000100 }
b11100000100001010101000000000100 F"
b11100 |
b11100 )"
b11100 :"
b11100 X"
b1 l
1$
#275
0$
#280
b1011 #"
b1011 *"
b1011 5"
b1011 T"
b100 u
b100 3"
b100 ["
b1011 0"
b111 t
b111 2"
b111 `"
b0 *
b0 9
b0 ]
b0 g
b0 r
b0 U"
b0 5
b0 B
b0 a
b0 i
b0 n
b0 Z"
b0 4
b0 A
b0 `
b0 h
b0 o
b0 _"
1b
b1 j
b1000 k
b110 l
b11100000010101011000000000000111 !"
b11100000010101011000000000000111 D"
b11100000010101011000000000000111 S"
b100 &"
b100 J"
b100 W"
b100000 $"
b100000 +"
b100000 R"
b100000 Y"
1$
#285
0$
